…
pop = read_csv("pop_sample.csv") %>% mutate_if(is.numeric, as.integer)
deaths = read_csv("deaths_sample.csv")  %>% mutate_if(is.numeric, as.integer)
```


* **Population** (at the beginning of the year) by age from 0 to 100 years during the reference period and the prediction year
  + [Sample data](https://raw.githubusercontent.com/Statistik-Wien/mortality-monitoring/main/pop_sample.csv):

```r
pop
```

```
## # A tibble: 606 x 3
##     year   age residents
##    <int> <int>     <int>
##  1  2002     0      1155
##  2  2002     1      1201
##  3  2002     2      1235
##  4  2002     3      1301
##  5  2002     4      1370
##  6  2002     5      1376
##  7  2002     6      1423
##  8  2002     7      1514
##  9  2002     8      1601
## 10  2002     9      1529
## # ... with 596 more rows
```

* **Deaths** by date of death and age at the beginning of the year of death from 0 to 100 years during the reference period.
*Deaths with date of birth after the beginning of the year are assigned to age 0. The reference period data should include the 3 previous and subsequent days from the reference period calendar years, e.g.: If the reference period is 2002–2006, the data should include all deaths from 29 Dec 2001 to 3 Jan 2007.*
  + [Sample data](https://raw.githubusercontent.com/Statistik-Wien/mortality-monitoring/main/deaths_sample.csv):

```r
deaths
```

```
## # A tibble: 6,724 x 3
##    date         age deaths
##    <date>     <int>  <int>
##  1 2001-12-28    80      1
##  2 2001-12-28    91      1
##  3 2001-12-29    56      1
##  4 2001-12-29    71      1
##  5 2001-12-29    76      1
##  6 2001-12-29    78      1
##  7 2001-12-29    79      1
##  8 2001-12-29    84      1
##  9 2001-12-29    89      1
## 10 2001-12-31    60      1
## # ... with 6,714 more rows
```
…
Calculate population weights for all reference years in relation to the prediction year.


```r
pop = pop %>% 
  group_by(age) %>% 
  mutate(residents_pred_year = sum(residents[year == pred_year])) %>% 
  ungroup() %>% 
  mutate(weight = replace_na(residents_pred_year / residents, 1))

pop
```

```
## # A tibble: 606 x 5
##     year   age residents residents_pred_year weight
##    <int> <int>     <int>               <int>  <dbl>
##  1  2002     0      1155                1121  0.971
##  2  2002     1      1201                1194  0.994
##  3  2002     2      1235                1269  1.03 
##  4  2002     3      1301                1252  0.962
##  5  2002     4      1370                1261  0.920
##  6  2002     5      1376                1306  0.949
##  7  2002     6      1423                1303  0.916
##  8  2002     7      1514                1333  0.880
##  9  2002     8      1601                1400  0.874
## 10  2002     9      1529                1450  0.948
## # ... with 596 more rows
```
…
pred_year_cal = tibble(
  date = seq(ISOweek2date(paste0(pred_year, "-W01-1")), # First day of ISO week 1 from the ISO prediction year
             ISOweek2date(paste0(pred_year + 1, "-W01-1")) - 1, # Last day of last ISO week from ISO prediction year.
      1)) %>% # Sequence by days
    mutate(week_iso = isoweek(date),
           year_iso = isoyear(date)) %>%
    mutate_if(is.numeric, as.integer)

pred_year_cal
```

```
## # A tibble: 364 x 3
##    date       week_iso year_iso
##    <date>        <int>    <int>
##  1 2007-01-01        1     2007
##  2 2007-01-02        1     2007
##  3 2007-01-03        1     2007
##  4 2007-01-04        1     2007
##  5 2007-01-05        1     2007
##  6 2007-01-06        1     2007
##  7 2007-01-07        1     2007
##  8 2007-01-08        2     2007
##  9 2007-01-09        2     2007
## 10 2007-01-10        2     2007
## # ... with 354 more rows
```
…
    ref_years_cal = bind_rows(ref_years_cal, k)
}

rm(i, k)
  
ref_years_cal
```

```
## # A tibble: 1,820 x 3
##    date       week_iso year_iso
##    <date>        <int>    <int>
##  1 2006-01-01        1     2006
##  2 2006-01-02        1     2006
##  3 2006-01-03        1     2006
##  4 2006-01-04        1     2006
##  5 2006-01-05        1     2006
##  6 2006-01-06        1     2006
##  7 2006-01-07        1     2006
##  8 2006-01-08        2     2006
##  9 2006-01-09        2     2006
## 10 2006-01-10        2     2006
## # ... with 1,810 more rows
```
…
if (is.na(sum(deaths_ref_years$deaths))) {
    print("Watch out, there are some days without deaths. This might indicate a data issue.")
deaths_ref_years %>% filter(is.na(deaths))
} else {
  print("OK, no days without deaths!")
}
```

```
## [1] "Watch out, there are some days without deaths. This might indicate a data issue."
```

```
## # A tibble: 35 x 5
##    date       week_iso year_iso   age deaths
##    <date>        <int>    <int> <int>  <int>
##  1 2006-04-07       14     2006    NA     NA
##  2 2006-06-02       22     2006    NA     NA
##  3 2006-06-07       23     2006    NA     NA
##  4 2006-06-08       23     2006    NA     NA
##  5 2006-06-17       24     2006    NA     NA
##  6 2006-07-14       28     2006    NA     NA
##  7 2006-09-03       36     2006    NA     NA
##  8 2006-10-01       40     2006    NA     NA
##  9 2006-10-18       42     2006    NA     NA
## 10 2005-02-24        8     2005    NA     NA
## # ... with 25 more rows
```
…
```r
# 4. Join date sequence of standardised death data with population weights, apply weights and aggregate standardised age groups by ISO year and ISO weeks
deaths_ref_years = deaths_ref_years %>%
  left_join(pop %>% select(year, age, weight), by = c("year_iso" = "year", "age")) %>% 
  mutate(deaths_weight = deaths * weight) %>% 
  group_by(year_iso, week_iso) %>% 
  summarise(deaths_weight = sum(deaths_weight))

deaths_ref_years
```

```
## # A tibble: 260 x 3
## # Groups:   year_iso [5]
##    year_iso week_iso deaths_weight
##       <int>    <int>         <dbl>
##  1     2002        1          46.7
##  2     2002        2          22.5
##  3     2002        3          35.5
##  4     2002        4          44.4
##  5     2002        5          36.6
##  6     2002        6          41.2
##  7     2002        7          44.4
##  8     2002        8          28.7
##  9     2002        9          32.4
## 10     2002       10          27.3
## # ... with 250 more rows
```
…
## Results

```r
deaths_pred_weeks %>%
  filter(year_iso == 2007) %>%
  select(week_iso, deaths_pred, deaths_pred_lower_margin, deaths_pred_upper_margin)
```

```
## # A tibble: 52 x 4
##    week_iso deaths_pred deaths_pred_lower_margin deaths_pred_upper_margin
##       <int>       <int>                    <int>                    <int>
##  1        1          32                       19                       48
##  2        2          33                       19                       48
##  3        3          33                       19                       48
##  4        4          33                       19                       49
##  5        5          33                       19                       49
##  6        6          33                       20                       49
##  7        7          33                       20                       49
##  8        8          33                       19                       49
##  9        9          32                       19                       48
## 10       10          32                       18                       47
## # ... with 42 more rows
```
…
